…
Our goal is to create a realistic time series of cases by variant.
First, we gather sample case data from our world in data.

``` r
irl <- owid |>
  filter(location=="Ireland") |>
  select(date,new_cases)
irl
```

    ## # A tibble: 993 × 2
    ##    date       new_cases
    ##    <date>         <dbl>
    ##  1 2020-02-29         1
    ##  2 2020-03-01         0
    ##  3 2020-03-02         0
    ##  4 2020-03-03         1
    ##  5 2020-03-04         4
    ##  6 2020-03-05         0
    ##  7 2020-03-06        12
    ##  8 2020-03-07         0
    ##  9 2020-03-08         1
    ## 10 2020-03-09         2
    ## # … with 983 more rows
    ## # ℹ Use `print(n = ...)` to see more rows
…
``` r
synth_var <- synth_variants(pull(irl,new_cases),
                            pull(irl,date),
                            percent_genomic_surveillance_min = 0.7,
                            percent_genomic_surveillance_max = 0.9)
synth_var
```

    ## # A tibble: 993 × 16
    ##     time Date       WuhanFr AlphaFr DeltaFr Omicron1Fr Omicron…¹ Total…² Seque…³
    ##    <dbl> <date>       <dbl>   <dbl>   <dbl>      <dbl>     <dbl>   <dbl>   <dbl>
    ##  1     1 2020-02-29       1       0       0          0         0       1    0.73
    ##  2     2 2020-03-01       1       0       0          0         0       0    0.89
    ##  3     3 2020-03-02       1       0       0          0         0       0    0.85
    ##  4     4 2020-03-03       1       0       0          0         0       1    0.75
    ##  5     5 2020-03-04       1       0       0          0         0       4    0.87
    ##  6     6 2020-03-05       1       0       0          0         0       0    0.78
    ##  7     7 2020-03-06       1       0       0          0         0      12    0.87
    ##  8     8 2020-03-07       1       0       0          0         0       0    0.75
    ##  9     9 2020-03-08       1       0       0          0         0       1    0.89
    ## 10    10 2020-03-09       1       0       0          0         0       2    0.84
    ## # … with 983 more rows, 7 more variables: SequencedCases <dbl>,
    ## #   SynCasesWuhan <dbl>, SynCasesAlpha <dbl>, SynCasesDelta <dbl>,
    ## #   SynCasesOmicron1 <dbl>, SynCasesOmicron2 <dbl>, SynCasesUnsequenced <dbl>,
    ## #   and abbreviated variable names ¹​Omicron2Fr, ²​TotalCases,
    ## #   ³​SequencingFraction
    ## # ℹ Use `print(n = ...)` to see more rows, and `colnames()` to see all variable names
…
