…
    ## `summarise()` has grouped output by 'year'. You can override using the
    ## `.groups` argument.

``` r
irl
```

    ## # A tibble: 144 × 4
    ## # Groups:   year [3]
    ##     year  week date       cases
    ##    <dbl> <dbl> <date>     <dbl>
    ##  1  2020     9 2020-02-29     2
    ##  2  2020    10 2020-03-04    32
    ##  3  2020    11 2020-03-11   189
    ##  4  2020    12 2020-03-18  1106
    ##  5  2020    13 2020-03-25  1906
    ##  6  2020    14 2020-04-01  2474
    ##  7  2020    15 2020-04-08  5770
    ##  8  2020    16 2020-04-15  4561
    ##  9  2020    17 2020-04-22  3837
    ## 10  2020    18 2020-04-29  2106
    ## # … with 134 more rows
    ## # ℹ Use `print(n = ...)` to see more rows
…
